[
    {
        "id": 1,
        "model": "resources.players",
        "fields": {
            "createdAt": "2019-05-08T13:50:51.644Z",
            "editedAt": "2019-05-08T13:50:51.644Z",
            "name": "Justin Anderson",
            "college": "Virginia",
            "position": "Small Forward",
            "image": "justin_anderson.png",
            "team": 1
        }
    },
    {
        "id": 2,
        "model": "resources.players",
        "fields": {
            "createdAt": "2019-05-08T13:50:51.644Z",
            "editedAt": "2019-05-08T13:50:51.644Z",
            "name": "Vince Carter",
            "college": "North Carolina",
            "position": "Small Forward",
            "image": "vince_carter.png",
            "team": 1
        }
    },
    {
        "id": 3,
        "model": "resources.players",
        "fields": {
            "createdAt": "2019-05-08T13:50:51.644Z",
            "editedAt": "2019-05-08T13:50:51.644Z",
            "name": "John Collins",
            "college": "Wake Forest",
            "position": "Center",
            "image": "john_collins.png",
            "team": 1
        }
    },
    {
        "id": 4,
        "model": "resources.players",
        "fields": {
            "createdAt": "2019-05-08T13:50:51.644Z",
            "editedAt": "2019-05-08T13:50:51.644Z",
            "name": "Trae Young",
            "college": "Oklahoma",
            "position": "Point Guard",
            "image": "trae_young.png",
            "team": 1
        }
    },
    {
        "id": 5,
        "model": "resources.players",
        "fields": {
            "createdAt": "2019-05-08T13:50:51.644Z",
            "editedAt": "2019-05-08T13:50:51.644Z",
            "name": "Taurean Prince",
            "college": "Baylor",
            "position": "Small Forward",
            "image": "taurean_prince.png",
            "team": 1
        }
    },
    {
        "id": 6,
        "model": "resources.players",
        "fields": {
            "createdAt": "2019-05-08T13:50:51.644Z",
            "editedAt": "2019-05-08T13:50:51.644Z",
            "name": "Jaylen Brown",
            "college": "California",
            "position": "Shooting Guard",
            "image": "jaylen_brown.png",
            "team": 2
        }
    },
    {
        "id": 7,
        "model": "resources.players",
        "fields": {
            "createdAt": "2019-05-08T13:50:51.644Z",
            "editedAt": "2019-05-08T13:50:51.644Z",
            "name": "Gordon 'Snake' Hayward",
            "college": "Butler",
            "position": "Small Forward",
            "image": "gordon_hayward.png",
            "team": 2
        }
    },
    {
        "id": 8,
        "model": "resources.players",
        "fields": {
            "createdAt": "2019-05-08T13:50:51.644Z",
            "editedAt": "2019-05-08T13:50:51.644Z",
            "name": "Al Horford",
            "college": "Florida",
            "position": "Center",
            "image": "al_horford.png",
            "team": 2
        }
    },
    {
        "id": 9,
        "model": "resources.players",
        "fields": {
            "createdAt": "2019-05-08T13:50:51.644Z",
            "editedAt": "2019-05-08T13:50:51.644Z",
            "name": "Kyrie Irving",
            "college": "Duke",
            "position": "Point Guard",
            "image": "kyrie_irving.png",
            "team": 2
        }
    },
    {
        "id": 10,
        "model": "resources.players",
        "fields": {
            "createdAt": "2019-05-08T13:50:51.644Z",
            "editedAt": "2019-05-08T13:50:51.644Z",
            "name": "Jayson Tatum",
            "college": "Duke",
            "position": "Small Forward",
            "image": "jayson_tatum.png",
            "team": 2
        }
    },
    {
        "id": 11,
        "model": "resources.players",
        "fields": {
            "createdAt": "2019-05-08T13:50:51.644Z",
            "editedAt": "2019-05-08T13:50:51.644Z",
            "name": "Jarrett Allen",
            "college": "Texas",
            "position": "Center",
            "image": "jarrett_allen.png",
            "team": 3
        }
    },
    {
        "id": 12,
        "model": "resources.players",
        "fields": {
            "createdAt": "2019-05-08T13:50:51.644Z",
            "editedAt": "2019-05-08T13:50:51.644Z",
            "name": "Caris LeVert",
            "college": "Michigan",
            "position": "Shooting Guard",
            "image": "caris_levert.png",
            "team": 3
        }
    },
    {
        "id": 13,
        "model": "resources.players",
        "fields": {
            "createdAt": "2019-05-08T13:50:51.644Z",
            "editedAt": "2019-05-08T13:50:51.644Z",
            "name": "Joe Harris",
            "college": "Virginia",
            "position": "Small Forward",
            "image": "joe_harris.png",
            "team": 3
        }
    },
    {
        "id": 14,
        "model": "resources.players",
        "fields": {
            "createdAt": "2019-05-08T13:50:51.644Z",
            "editedAt": "2019-05-08T13:50:51.644Z",
            "name": "D'Angelo Russell",
            "college": "Ohio State",
            "position": "Point Guard",
            "image": "dangelo_russell.png",
            "team": 3
        }
    },
    {
        "id": 15,
        "model": "resources.players",
        "fields": {
            "createdAt": "2019-05-08T13:50:51.644Z",
            "editedAt": "2019-05-08T13:50:51.644Z",
            "name": "Spencer Dinwiddie",
            "college": "Colorado",
            "position": "Shooting Guard",
            "image": "spencer_dinwiddie.png",
            "team": 3
        }
    },
    {
        "id": 16,
        "model": "resources.players",
        "fields": {
            "createdAt": "2019-05-08T13:50:51.644Z",
            "editedAt": "2019-05-08T13:50:51.644Z",
            "name": "Nicolas Batum",
            "college": "France",
            "position": "Small Forward",
            "image": "nicolas_batum.png",
            "team": 4
        }
    },
    {
        "id": 17,
        "model": "resources.players",
        "fields": {
            "createdAt": "2019-05-08T13:50:51.644Z",
            "editedAt": "2019-05-08T13:50:51.644Z",
            "name": "Michael Kidd-Gilchrist",
            "college": "Kentucky",
            "position": "Small Forward",
            "image": "michael_kiddgilchrist.png",
            "team": 4
        }
    },
    {
        "id": 18,
        "model": "resources.players",
        "fields": {
            "createdAt": "2019-05-08T13:50:51.644Z",
            "editedAt": "2019-05-08T13:50:51.644Z",
            "name": "Malik Monk",
            "college": "Kentucky",
            "position": "Shooting Guard",
            "image": "malik_monk.png",
            "team": 4
        }
    },
    {
        "id": 19,
        "model": "resources.players",
        "fields": {
            "createdAt": "2019-05-08T13:50:51.644Z",
            "editedAt": "2019-05-08T13:50:51.644Z",
            "name": "Kemba Walker",
            "college": "Connecticut",
            "position": "point Guard",
            "image": "kemba_walker.png",
            "team": 4
        }
    },
    {
        "id": 20,
        "model": "resources.players",
        "fields": {
            "createdAt": "2019-05-08T13:50:51.644Z",
            "editedAt": "2019-05-08T13:50:51.644Z",
            "name": "Cody Zeller",
            "college": "Indiana",
            "position": "Center",
            "image": "cody_zeller.png",
            "team": 4
        }
    },
    {
        "id": 21,
        "model": "resources.players",
        "fields": {
            "createdAt": "2019-05-08T13:50:51.644Z",
            "editedAt": "2019-05-08T13:50:51.644Z",
            "name": "Rawle Alkins",
            "college": "None",
            "position": "Guard",
            "image": "rawle_alkins.png",
            "team": 5
        }
    },
    {
        "id": 22,
        "model": "resources.players",
        "fields": {
            "createdAt": "2019-05-08T13:50:51.644Z",
            "editedAt": "2019-05-08T13:50:51.644Z",
            "name": "Robin Lopez",
            "college": "Stanford",
            "position": "Center",
            "image": "robin_lopez.png",
            "team": 5
        }
    },
    {
        "id": 23,
        "model": "resources.players",
        "fields": {
            "createdAt": "2019-05-08T13:50:51.644Z",
            "editedAt": "2019-05-08T13:50:51.644Z",
            "name": "Brandon Sampson",
            "college": "None",
            "position": "Guard",
            "image": "brandon_sampson.png",
            "team": 5
        }
    },
    {
        "id": 24,
        "model": "resources.players",
        "fields": {
            "createdAt": "2019-05-08T13:50:51.644Z",
            "editedAt": "2019-05-08T13:50:51.644Z",
            "name": "Kevin Love",
            "college": "California-Los Angeles",
            "position": "Forward-Center",
            "image": "kevin_love.png",
            "team": 6
        }
    },
    {
        "id": 25,
        "model": "resources.players",
        "fields": {
            "createdAt": "2019-05-08T13:50:51.644Z",
            "editedAt": "2019-05-08T13:50:51.644Z",
            "name": "JR Smith",
            "college": "Saint Benedict's Preparatory School",
            "position": "Guard-Forward",
            "image": "jr_smith.png",
            "team": 6
        }
    },
    {
        "id": 26,
        "model": "resources.players",
        "fields": {
            "createdAt": "2019-05-08T13:50:51.644Z",
            "editedAt": "2019-05-08T13:50:51.644Z",
            "name": "Brandon Knight",
            "college": "Kentucky",
            "position": "Guard",
            "image": "brandon_knight.png",
            "team": 6
        }
    },
    {
        "id": 27,
        "model": "resources.players",
        "fields": {
            "createdAt": "2019-05-08T13:50:51.644Z",
            "editedAt": "2019-05-08T13:50:51.644Z",
            "name": "Dirk Nowitzki",
            "college": "None",
            "position": "Forward",
            "image": "dirk_nowitzki.png",
            "team": 7
        }
    },
    {
        "id": 28,
        "model": "resources.players",
        "fields": {
            "createdAt": "2019-05-08T13:50:51.644Z",
            "editedAt": "2019-05-08T13:50:51.644Z",
            "name": "Devin Harris",
            "college": "Wisconsin",
            "position": "Guard",
            "image": "devin_harris.png",
            "team": 7
        }
    },
    {
        "id": 29,
        "model": "resources.players",
        "fields": {
            "createdAt": "2019-05-08T13:50:51.644Z",
            "editedAt": "2019-05-08T13:50:51.644Z",
            "name": "Trey Burke",
            "college": "Michigan",
            "position": "Guard",
            "image": "trey_burke.png",
            "team": 7
        }
    },
    {
        "id": 30,
        "model": "resources.players",
        "fields": {
            "createdAt": "2019-05-08T13:50:51.644Z",
            "editedAt": "2019-05-08T13:50:51.644Z",
            "name": "Nikola Jokic",
            "college": "None",
            "position": "Center",
            "image": "nikola_jokic.png",
            "team": 8
        }
    },
    {
        "id": 31,
        "model": "resources.players",
        "fields": {
            "createdAt": "2019-05-08T13:50:51.644Z",
            "editedAt": "2019-05-08T13:50:51.644Z",
            "name": "Paul Millsap",
            "college": "Louisiana Tech",
            "position": "Forward",
            "image": "paul_millsap.png",
            "team": 8
        }
    },
    {
        "id": 32,
        "model": "resources.players",
        "fields": {
            "createdAt": "2019-05-08T13:50:51.644Z",
            "editedAt": "2019-05-08T13:50:51.644Z",
            "name": "Torrey Craig",
            "college": "South Carolina Upstate",
            "position": "Forward",
            "image": "torrey_craig.png",
            "team": 8
        }
    },
    {
        "id": 33,
        "model": "resources.players",
        "fields": {
            "createdAt": "2019-05-08T13:50:51.644Z",
            "editedAt": "2019-05-08T13:50:51.644Z",
            "name": "Blake Griffin",
            "college": "Oklahoma",
            "position": "Forward",
            "image": "blake_griffin.png",
            "team": 9
        }
    },
    {
        "id": 34,
        "model": "resources.players",
        "fields": {
            "createdAt": "2019-05-08T13:50:51.644Z",
            "editedAt": "2019-05-08T13:50:51.644Z",
            "name": "Zaza Pachulia",
            "college": "None",
            "position": "Center",
            "image": "zaza_pachulia.png",
            "team": 9
        }
    },
    {
        "id": 35,
        "model": "resources.players",
        "fields": {
            "createdAt": "2019-05-08T13:50:51.644Z",
            "editedAt": "2019-05-08T13:50:51.644Z",
            "name": "Andre Drummond",
            "college": "Connecticut",
            "position": "Center",
            "image": "andre_drummond.png",
            "team": 9
        }
    },
    {
        "id": 36,
        "model": "resources.players",
        "fields": {
            "createdAt": "2019-05-08T13:50:51.644Z",
            "editedAt": "2019-05-08T13:50:51.644Z",
            "name": "Stephen Curry",
            "college": "Davidson",
            "position": "Guard",
            "image": "stephen_curry.png",
            "team": 10
        }
    },
    {
        "id": 37,
        "model": "resources.players",
        "fields": {
            "createdAt": "2019-05-08T13:50:51.644Z",
            "editedAt": "2019-05-08T13:50:51.644Z",
            "name": "Kevin Durrant",
            "college": "Texas",
            "position": "Forward",
            "image": "kevin_durrant.png",
            "team": 10
        }
    },
    {
        "id": 38,
        "model": "resources.players",
        "fields": {
            "createdAt": "2019-05-08T13:50:51.644Z",
            "editedAt": "2019-05-08T13:50:51.644Z",
            "name": "Klay Thompson",
            "college": "Washington State",
            "position": "Guard",
            "image": "klay_thompson.png",
            "team": 10
        }
    },
    {
        "id": 39,
        "model": "resources.players",
        "fields": {
            "createdAt": "2019-05-08T13:50:51.644Z",
            "editedAt": "2019-05-08T13:50:51.644Z",
            "name": "Vincent Edwards",
            "college": "Purdue",
            "position": "Forward",
            "image": "vincent_edwards.png",
            "team": 11
        }
    },
    {
        "id": 40,
        "model": "resources.players",
        "fields": {
            "createdAt": "2019-05-08T13:50:51.644Z",
            "editedAt": "2019-05-08T13:50:51.644Z",
            "name": "James Harden",
            "college": "Arizona State",
            "position": "Guard",
            "image": "james_harden.png",
            "team": 11
        }
    },
    {
        "id": 41,
        "model": "resources.players",
        "fields": {
            "createdAt": "2019-05-08T13:50:51.644Z",
            "editedAt": "2019-05-08T13:50:51.644Z",
            "name": "Chris Paul",
            "college": "Wake Forest",
            "position": "Guard",
            "image": "chris_paul.png",
            "team": 11
        }
    },
    {
        "id": 42,
        "model": "resources.players",
        "fields": {
            "createdAt": "2019-05-08T13:50:51.644Z",
            "editedAt": "2019-05-08T13:50:51.644Z",
            "name": "Tyreke Evans",
            "college": "Memphis",
            "position": "Guard",
            "image": "tyreke_evans.png",
            "team": 12
        }
    },
    {
        "id": 43,
        "model": "resources.players",
        "fields": {
            "createdAt": "2019-05-08T13:50:51.644Z",
            "editedAt": "2019-05-08T13:50:51.644Z",
            "name": "Victor Oladipo",
            "college": "Indiana",
            "position": "Guard",
            "image": "victor_oladipo.png",
            "team": 12
        }
    },
    {
        "id": 44,
        "model": "resources.players",
        "fields": {
            "createdAt": "2019-05-08T13:50:51.644Z",
            "editedAt": "2019-05-08T13:50:51.644Z",
            "name": "TJ Leaf",
            "college": "California-Los Angeles",
            "position": "Forward",
            "image": "tj_leaf.png",
            "team": 12
        }
    },
    {
        "id": 45,
        "model": "resources.players",
        "fields": {
            "createdAt": "2019-05-08T13:50:51.644Z",
            "editedAt": "2019-05-08T13:50:51.644Z",
            "name": "Tyrone Wallace",
            "college": "California",
            "position": "Guard",
            "image": "tyrone_wallace.png",
            "team": 13
        }
    },
    {
        "id": 46,
        "model": "resources.players",
        "fields": {
            "createdAt": "2019-05-08T13:50:51.644Z",
            "editedAt": "2019-05-08T13:50:51.644Z",
            "name": "Angel Delgado",
            "college": "None",
            "position": "Center",
            "image": "angel_delgado.png",
            "team": 13
        }
    },
    {
        "id": 47,
        "model": "resources.players",
        "fields": {
            "createdAt": "2019-05-08T13:50:51.644Z",
            "editedAt": "2019-05-08T13:50:51.644Z",
            "name": "Danilo Gallinari",
            "college": "None",
            "position": "Forward",
            "image": "danilo_gallinari.png",
            "team": 13
        }
    },
    {
        "id": 48,
        "model": "resources.players",
        "fields": {
            "createdAt": "2019-05-08T13:50:51.644Z",
            "editedAt": "2019-05-08T13:50:51.644Z",
            "name": "Lebron James",
            "college": "Saint Vincent-Saint Mary",
            "position": "Forward",
            "image": "lebron_james.png",
            "team": 14
        }
    },
    {
        "id": 49,
        "model": "resources.players",
        "fields": {
            "createdAt": "2019-05-08T13:50:51.644Z",
            "editedAt": "2019-05-08T13:50:51.644Z",
            "name": "Tyson Chandler",
            "college": "Dominguez",
            "position": "Center",
            "image": "tyson_chandler.png",
            "team": 14
        }
    },
    {
        "id": 50,
        "model": "resources.players",
        "fields": {
            "createdAt": "2019-05-08T13:50:51.644Z",
            "editedAt": "2019-05-08T13:50:51.644Z",
            "name": "JaVale McGee",
            "college": "Nevada-Reno",
            "position": "Center",
            "image": "javale_mcgee.png",
            "team": 14
        }
    },
    {
        "id": 51,
        "model": "resources.players",
        "fields": {
            "createdAt": "2019-05-08T13:50:51.644Z",
            "editedAt": "2019-05-08T13:50:51.644Z",
            "name": "Dillon Brooks",
            "college": "Oregon",
            "position": "Guard-Forward",
            "image": "dillon_brooks.png",
            "team": 15
        }
    },
    {
        "id": 52,
        "model": "resources.players",
        "fields": {
            "createdAt": "2019-05-08T13:50:51.644Z",
            "editedAt": "2019-05-08T13:50:51.644Z",
            "name": "Kyle Anderson",
            "college": "California-Los Angeles",
            "position": "Forward",
            "image": "kyle_anderson.png",
            "team": 15
        }
    },
    {
        "id": 53,
        "model": "resources.players",
        "fields": {
            "createdAt": "2019-05-08T13:50:51.644Z",
            "editedAt": "2019-05-08T13:50:51.644Z",
            "name": "CJ Miles",
            "college": "Skyline",
            "position": "Forward-Guard",
            "image": "cj_miles.png",
            "team": 15
        }
    },
    {
        "id": 54,
        "model": "resources.players",
        "fields": {
            "createdAt": "2019-05-08T13:50:51.644Z",
            "editedAt": "2019-05-08T13:50:51.644Z",
            "name": "Dwyane Wade",
            "college": "Marquette",
            "position": "Guard",
            "image": "dwyane_wade.png",
            "team": 16
        }
    },
    {
        "id": 55,
        "model": "resources.players",
        "fields": {
            "createdAt": "2019-05-08T13:50:51.644Z",
            "editedAt": "2019-05-08T13:50:51.644Z",
            "name": "Kelly Olynyk",
            "college": "Gonzaga",
            "position": "Forward",
            "image": "kelly_olynyk.png",
            "team": 16
        }
    },
    {
        "id": 56,
        "model": "resources.players",
        "fields": {
            "createdAt": "2019-05-08T13:50:51.644Z",
            "editedAt": "2019-05-08T13:50:51.644Z",
            "name": "Yante Maten",
            "college": "Georgia",
            "position": "Forward",
            "image": "yante_maten.png",
            "team": 16
        }
    },
    {
        "id": 57,
        "model": "resources.players",
        "fields": {
            "createdAt": "2019-05-08T13:50:51.644Z",
            "editedAt": "2019-05-08T13:50:51.644Z",
            "name": "Giannis Antetokounmpo",
            "college": "None",
            "position": "Forward",
            "image": "giannis_antetokounmpo.png",
            "team": 17
        }
    },
    {
        "id": 58,
        "model": "resources.players",
        "fields": {
            "createdAt": "2019-05-08T13:50:51.644Z",
            "editedAt": "2019-05-08T13:50:51.644Z",
            "name": "Khris Middleton",
            "college": "Texas A&M",
            "position": "Forward",
            "image": "khris_middleton.png",
            "team": 17
        }
    },
    {
        "id": 59,
        "model": "resources.players",
        "fields": {
            "createdAt": "2019-05-08T13:50:51.644Z",
            "editedAt": "2019-05-08T13:50:51.644Z",
            "name": "Pau Gasol",
            "college": "None",
            "position": "Center-Forward",
            "image": "pau_gasol.png",
            "team": 17
        }
    },
    {
        "id": 60,
        "model": "resources.players",
        "fields": {
            "createdAt": "2019-05-08T13:50:51.644Z",
            "editedAt": "2019-05-08T13:50:51.644Z",
            "name": "Karl-Anthony Towns",
            "college": "Kentucky",
            "position": "Center",
            "image": "karlanthony_towns.png",
            "team": 18
        }
    },
    {
        "id": 61,
        "model": "resources.players",
        "fields": {
            "createdAt": "2019-05-08T13:50:51.644Z",
            "editedAt": "2019-05-08T13:50:51.644Z",
            "name": "Josh Okogie",
            "college": "Georgia Tech",
            "position": "Guard",
            "image": "josh_okogie.png",
            "team": 18
        }
    },
    {
        "id": 62,
        "model": "resources.players",
        "fields": {
            "createdAt": "2019-05-08T13:50:51.644Z",
            "editedAt": "2019-05-08T13:50:51.644Z",
            "name": "Derrick Rose",
            "college": "Memphis",
            "position": "Guard",
            "image": "derrick_rose.png",
            "team": 18
        }
    },
    {
        "id": 63,
        "model": "resources.players",
        "fields": {
            "createdAt": "2019-05-08T13:50:51.644Z",
            "editedAt": "2019-05-08T13:50:51.644Z",
            "name": "Anthony Davis",
            "college": "Kentucky",
            "position": "Forward-Center",
            "image": "anthony_davis.png",
            "team": 19
        }
    },
    {
        "id": 64,
        "model": "resources.players",
        "fields": {
            "createdAt": "2019-05-08T13:50:51.644Z",
            "editedAt": "2019-05-08T13:50:51.644Z",
            "name": "Frank Jackson",
            "college": "Duke",
            "position": "Guard",
            "image": "frank_jackson.png",
            "team": 19
        }
    },
    {
        "id": 65,
        "model": "resources.players",
        "fields": {
            "createdAt": "2019-05-08T13:50:51.644Z",
            "editedAt": "2019-05-08T13:50:51.644Z",
            "name": "Elfrid Payton",
            "college": "Lauisiana-Lafayette",
            "position": "Guard",
            "image": "elfrid_payton.png",
            "team": 19
        }
    },
    {
        "id": 66,
        "model": "resources.players",
        "fields": {
            "createdAt": "2019-05-08T13:50:51.644Z",
            "editedAt": "2019-05-08T13:50:51.644Z",
            "name": "Deandre Jordan",
            "college": "Texas A&M",
            "position": "Center",
            "image": "deandre_jordan.png",
            "team": 20
        }
    },
    {
        "id": 67,
        "model": "resources.players",
        "fields": {
            "createdAt": "2019-05-08T13:50:51.644Z",
            "editedAt": "2019-05-08T13:50:51.644Z",
            "name": "John Jenkins",
            "college": "Vanderbuilt",
            "position": "Guard",
            "image": "john_jenkins.png",
            "team": 20
        }
    },
    {
        "id": 68,
        "model": "resources.players",
        "fields": {
            "createdAt": "2019-05-08T13:50:51.644Z",
            "editedAt": "2019-05-08T13:50:51.644Z",
            "name": "Damyean Dotson",
            "college": "Houston",
            "position": "Guard",
            "image": "damyean_dotson.png",
            "team": 20
        }
    },
    {
        "id": 69,
        "model": "resources.players",
        "fields": {
            "createdAt": "2019-05-08T13:50:51.644Z",
            "editedAt": "2019-05-08T13:50:51.644Z",
            "name": "Paul George",
            "college": "Fresno State",
            "position": "Forward",
            "image": "paul_george.png",
            "team": 21
        }
    },
    {
        "id": 70,
        "model": "resources.players",
        "fields": {
            "createdAt": "2019-05-08T13:50:51.644Z",
            "editedAt": "2019-05-08T13:50:51.644Z",
            "name": "Russell Westbrook",
            "college": "California-Los Angeles",
            "position": "Guard",
            "image": "russell_westbrook.png",
            "team": 21
        }
    },
    {
        "id": 71,
        "model": "resources.players",
        "fields": {
            "createdAt": "2019-05-08T13:50:51.644Z",
            "editedAt": "2019-05-08T13:50:51.644Z",
            "name": "Steven Adams",
            "college": "Pittsburg",
            "position": "Center",
            "image": "steven_adams.png",
            "team": 21
        }
    },
    {
        "id": 72,
        "model": "resources.players",
        "fields": {
            "createdAt": "2019-05-08T13:50:51.644Z",
            "editedAt": "2019-05-08T13:50:51.644Z",
            "name": "Khem Birch",
            "college": "Nevada-Las Vegas",
            "position": "Center",
            "image": "khem_birch.png",
            "team": 22
        }
    },
    {
        "id": 73,
        "model": "resources.players",
        "fields": {
            "createdAt": "2019-05-08T13:50:51.644Z",
            "editedAt": "2019-05-08T13:50:51.644Z",
            "name": "Markelle Fultz",
            "college": "Washington",
            "position": "Guard",
            "image": "markelle_fultz.png",
            "team": 22
        }
    },
    {
        "id": 74,
        "model": "resources.players",
        "fields": {
            "createdAt": "2019-05-08T13:50:51.644Z",
            "editedAt": "2019-05-08T13:50:51.644Z",
            "name": "Aaron Gordon",
            "college": "Arizona",
            "position": "Forward",
            "image": "aaron_gordon.png",
            "team": 22
        }
    },
    {
        "id": 75,
        "model": "resources.players",
        "fields": {
            "createdAt": "2019-05-08T13:50:51.644Z",
            "editedAt": "2019-05-08T13:50:51.644Z",
            "name": "Joel Embiid",
            "college": "Kansas",
            "position": "Forward-Center",
            "image": "joel_embiid.png",
            "team": 23
        }
    },
    {
        "id": 76,
        "model": "resources.players",
        "fields": {
            "createdAt": "2019-05-08T13:50:51.644Z",
            "editedAt": "2019-05-08T13:50:51.644Z",
            "name": "Ben Simmons",
            "college": "Louisiana State",
            "position": "Guard-Forward",
            "image": "ben_simmons.png",
            "team": 23
        }
    },
    {
        "id": 77,
        "model": "resources.players",
        "fields": {
            "createdAt": "2019-05-08T13:50:51.644Z",
            "editedAt": "2019-05-08T13:50:51.644Z",
            "name": "Furkan Korkmaz",
            "college": "None",
            "position": "Guard-Forward",
            "image": "furkan_korkmaz.png",
            "team": 23
        }
    },
    {
        "id": 78,
        "model": "resources.players",
        "fields": {
            "createdAt": "2019-05-08T13:50:51.644Z",
            "editedAt": "2019-05-08T13:50:51.644Z",
            "name": "Devin Booker",
            "college": "Kentucky",
            "position": "Guard",
            "image": "devin_booker.png",
            "team": 24
        }
    },
    {
        "id": 79,
        "model": "resources.players",
        "fields": {
            "createdAt": "2019-05-08T13:50:51.644Z",
            "editedAt": "2019-05-08T13:50:51.644Z",
            "name": "Mikal Bridges",
            "college": "Villanova",
            "position": "Forward",
            "image": "mikal_bridges.png",
            "team": 24
        }
    },
    {
        "id": 80,
        "model": "resources.players",
        "fields": {
            "createdAt": "2019-05-08T13:50:51.644Z",
            "editedAt": "2019-05-08T13:50:51.644Z",
            "name": "Dragan Bender",
            "college": "None",
            "position": "Forward",
            "image": "dragan_bender.png",
            "team": 24
        }
    },
    {
        "id": 81,
        "model": "resources.players",
        "fields": {
            "createdAt": "2019-05-08T13:50:51.644Z",
            "editedAt": "2019-05-08T13:50:51.644Z",
            "name": "Damian Lillard",
            "college": "Weber State",
            "position": "Guard",
            "image": "damian_lillard.png",
            "team": 25
        }
    },
    {
        "id": 82,
        "model": "resources.players",
        "fields": {
            "createdAt": "2019-05-08T13:50:51.644Z",
            "editedAt": "2019-05-08T13:50:51.644Z",
            "name": "Jake Layman",
            "college": "Maryland",
            "position": "Forward",
            "image": "jake_layman.png",
            "team": 25
        }
    },
    {
        "id": 83,
        "model": "resources.players",
        "fields": {
            "createdAt": "2019-05-08T13:50:51.644Z",
            "editedAt": "2019-05-08T13:50:51.644Z",
            "name": "Seth Curry",
            "college": "Duke",
            "position": "Guard",
            "image": "seth_curry.png",
            "team": 25
        }
    },
    {
        "id": 84,
        "model": "resources.players",
        "fields": {
            "createdAt": "2019-05-08T13:50:51.644Z",
            "editedAt": "2019-05-08T13:50:51.644Z",
            "name": "Bogdan Bogdanovic",
            "college": "None",
            "position": "Guard",
            "image": "bogdan_bogdanovic.png",
            "team": 26
        }
    },
    {
        "id": 85,
        "model": "resources.players",
        "fields": {
            "createdAt": "2019-05-08T13:50:51.644Z",
            "editedAt": "2019-05-08T13:50:51.644Z",
            "name": "Yogi Ferrell",
            "college": "Indiana",
            "position": "Guard",
            "image": "yogi_ferrell.png",
            "team": 26
        }
    },
    {
        "id": 86,
        "model": "resources.players",
        "fields": {
            "createdAt": "2019-05-08T13:50:51.644Z",
            "editedAt": "2019-05-08T13:50:51.644Z",
            "name": "Frank Mason",
            "college": "Kansas",
            "position": "Guard",
            "image": "frank_mason.png",
            "team": 26
        }
    },
    {
        "id": 87,
        "model": "resources.players",
        "fields": {
            "createdAt": "2019-05-08T13:50:51.644Z",
            "editedAt": "2019-05-08T13:50:51.644Z",
            "name": "LaMarcus Aldridge",
            "college": "Texas",
            "position": "Center-Forward",
            "image": "lamarcus_aldridge.png",
            "team": 27
        }
    },
    {
        "id": 88,
        "model": "resources.players",
        "fields": {
            "createdAt": "2019-05-08T13:50:51.644Z",
            "editedAt": "2019-05-08T13:50:51.644Z",
            "name": "Dante Cunningham",
            "college": "Villanova",
            "position": "Forward",
            "image": "dante_cunningham.png",
            "team": 27
        }
    },
    {
        "id": 89,
        "model": "resources.players",
        "fields": {
            "createdAt": "2019-05-08T13:50:51.644Z",
            "editedAt": "2019-05-08T13:50:51.644Z",
            "name": "Lonnie Walker IV",
            "college": "Miama (FL)",
            "position": "Guard",
            "image": "lonnie_walkeriv.png",
            "team": 27
        }
    },
    {
        "id": 90,
        "model": "resources.players",
        "fields": {
            "createdAt": "2019-05-08T13:50:51.644Z",
            "editedAt": "2019-05-08T13:50:51.644Z",
            "name": "Kawhi Leonard",
            "college": "San Diego State",
            "position": "Forward",
            "image": "kawhi_leonard.png",
            "team": 28
        }
    },
    {
        "id": 91,
        "model": "resources.players",
        "fields": {
            "createdAt": "2019-05-08T13:50:51.644Z",
            "editedAt": "2019-05-08T13:50:51.644Z",
            "name": "Kyle Lowry",
            "college": "Villanova",
            "position": "Guard",
            "image": "kyle_lowry.png",
            "team": 28
        }
    },
    {
        "id": 92,
        "model": "resources.players",
        "fields": {
            "createdAt": "2019-05-08T13:50:51.644Z",
            "editedAt": "2019-05-08T13:50:51.644Z",
            "name": "Norman Powell",
            "college": "California-Los Angeles",
            "position": "Forward-Guard",
            "image": "norman_powell.png",
            "team": 28
        }
    },
    {
        "id": 93,
        "model": "resources.players",
        "fields": {
            "createdAt": "2019-05-08T13:50:51.644Z",
            "editedAt": "2019-05-08T13:50:51.644Z",
            "name": "Donovan Mitchell",
            "college": "Louisville",
            "position": "Guard",
            "image": "donovan_mitchell.png",
            "team": 29
        }
    },
    {
        "id": 94,
        "model": "resources.players",
        "fields": {
            "createdAt": "2019-05-08T13:50:51.644Z",
            "editedAt": "2019-05-08T13:50:51.644Z",
            "name": "Rudy Gobert",
            "college": "None",
            "position": "Center",
            "image": "rudy_gobert.png",
            "team": 29
        }
    },
    {
        "id": 95,
        "model": "resources.players",
        "fields": {
            "createdAt": "2019-05-08T13:50:51.644Z",
            "editedAt": "2019-05-08T13:50:51.644Z",
            "name": "Joe Ingles",
            "college": "None",
            "position": "Forward",
            "image": "joe_ingles.png",
            "team": 29
        }
    },
    {
        "id": 96,
        "model": "resources.players",
        "fields": {
            "createdAt": "2019-05-08T13:50:51.644Z",
            "editedAt": "2019-05-08T13:50:51.644Z",
            "name": "Bradley Beal",
            "college": "Florida",
            "position": "Guard",
            "image": "bradley_beal.png",
            "team": 30
        }
    },
    {
        "id": 97,
        "model": "resources.players",
        "fields": {
            "createdAt": "2019-05-08T13:50:51.644Z",
            "editedAt": "2019-05-08T13:50:51.644Z",
            "name": "Jabari Parker",
            "college": "Duke",
            "position": "Forward",
            "image": "jabari_parker.png",
            "team": 30
        }
    },
    {
        "id": 98,
        "model": "resources.players",
        "fields": {
            "createdAt": "2019-05-08T13:50:51.644Z",
            "editedAt": "2019-05-08T13:50:51.644Z",
            "name": "Dwight Howard",
            "college": "Southwest Atlanta Christian Academy",
            "position": "Center",
            "image": "dwight_howard.png",
            "team": 30
        }
    }
]
