[
    {
        "id": 1,
        "model": "resources.team",
        "fields": {
            "createdAt": "2019-05-08T20:58:18.411Z",
            "editedAt": "2019-05-08T20:58:18.411Z",
            "name": "Atlanta Hawks"
        }
    },
    {
        "id": 2,
        "model": "resources.team",
        "fields": {
            "createdAt": "2019-05-08T20:58:18.411Z",
            "editedAt": "2019-05-08T20:58:18.411Z",
            "name": "Boston Celtics"
        }
    },
    {
        "id": 3,
        "model": "resources.team",
        "fields": {
            "createdAt": "2019-05-08T20:58:18.411Z",
            "editedAt": "2019-05-08T20:58:18.411Z",
            "name": "Brooklyn Nets"
        }
    },
    {
        "id": 4,
        "model": "resources.team",
        "fields": {
            "createdAt": "2019-05-08T20:58:18.411Z",
            "editedAt": "2019-05-08T20:58:18.411Z",
            "name": "Charlotte Hornets"
        }
    },
    {
        "id": 5,
        "model": "resources.team",
        "fields": {
            "createdAt": "2019-05-08T20:58:18.411Z",
            "editedAt": "2019-05-08T20:58:18.411Z",
            "name": "Chicago Bulls"
        }
    },
    {
        "id": 6,
        "model": "resources.team",
        "fields": {
            "createdAt": "2019-05-08T20:58:18.411Z",
            "editedAt": "2019-05-08T20:58:18.411Z",
            "name": "Cleveland Cavaliers"
        }
    },
    {
        "id": 7,
        "model": "resources.team",
        "fields": {
            "createdAt": "2019-05-08T20:58:18.411Z",
            "editedAt": "2019-05-08T20:58:18.411Z",
            "name": "Dallas Mavericks"
        }
    },
    {
        "id": 8,
        "model": "resources.team",
        "fields": {
            "createdAt": "2019-05-08T20:58:18.411Z",
            "editedAt": "2019-05-08T20:58:18.411Z",
            "name": "Denver Nuggets"
        }
    },
    {
        "id": 9,
        "model": "resources.team",
        "fields": {
            "createdAt": "2019-05-08T20:58:18.411Z",
            "editedAt": "2019-05-08T20:58:18.411Z",
            "name": "Detroit Pistons"
        }
    },
    {
        "id": 10,
        "model": "resources.team",
        "fields": {
            "createdAt": "2019-05-08T20:58:18.411Z",
            "editedAt": "2019-05-08T20:58:18.411Z",
            "name": "Golden State Warriors"
        }
    },
    {
        "id": 11,
        "model": "resources.team",
        "fields": {
            "createdAt": "2019-05-08T20:58:18.411Z",
            "editedAt": "2019-05-08T20:58:18.411Z",
            "name": "Houston Rockets"
        }
    },
    {
        "id": 12,
        "model": "resources.team",
        "fields": {
            "createdAt": "2019-05-08T20:58:18.411Z",
            "editedAt": "2019-05-08T20:58:18.411Z",
            "name": "Indiana Pacers"
        }
    },
    {
        "id": 13,
        "model": "resources.team",
        "fields": {
            "createdAt": "2019-05-08T20:58:18.411Z",
            "editedAt": "2019-05-08T20:58:18.411Z",
            "name": "LA Clippers"
        }
    },
    {
        "id": 14,
        "model": "resources.team",
        "fields": {
            "createdAt": "2019-05-08T20:58:18.411Z",
            "editedAt": "2019-05-08T20:58:18.411Z",
            "name": "LA Lakers"
        }
    },
    {
        "id": 15,
        "model": "resources.team",
        "fields": {
            "createdAt": "2019-05-08T20:58:18.411Z",
            "editedAt": "2019-05-08T20:58:18.411Z",
            "name": "Memphis Grizzlies"
        }
    },
    {
        "id": 16,
        "model": "resources.team",
        "fields": {
            "createdAt": "2019-05-08T20:58:18.411Z",
            "editedAt": "2019-05-08T20:58:18.411Z",
            "name": "Miami Heat"
        }
    },
    {
        "id": 17,
        "model": "resources.team",
        "fields": {
            "createdAt": "2019-05-08T20:58:18.411Z",
            "editedAt": "2019-05-08T20:58:18.411Z",
            "name": "Milwaukee Bucks"
        }
    },
    {
        "id": 18,
        "model": "resources.team",
        "fields": {
            "createdAt": "2019-05-08T20:58:18.411Z",
            "editedAt": "2019-05-08T20:58:18.411Z",
            "name": "Minnesota Timberwolves"
        }
    },
    {
        "id": 19,
        "model": "resources.team",
        "fields": {
            "createdAt": "2019-05-08T20:58:18.411Z",
            "editedAt": "2019-05-08T20:58:18.411Z",
            "name": "New Orleans Pelicans"
        }
    },
    {
        "id": 20,
        "model": "resources.team",
        "fields": {
            "createdAt": "2019-05-08T20:58:18.411Z",
            "editedAt": "2019-05-08T20:58:18.411Z",
            "name": "New York Knicks"
        }
    },
    {
        "id": 21,
        "model": "resources.team",
        "fields": {
            "createdAt": "2019-05-08T20:58:18.411Z",
            "editedAt": "2019-05-08T20:58:18.411Z",
            "name": "OKC Thunder"
        }
    },
    {
        "id": 22,
        "model": "resources.team",
        "fields": {
            "createdAt": "2019-05-08T20:58:18.411Z",
            "editedAt": "2019-05-08T20:58:18.411Z",
            "name": "Orlando Magic"
        }
    },
    {
        "id": 23,
        "model": "resources.team",
        "fields": {
            "createdAt": "2019-05-08T20:58:18.411Z",
            "editedAt": "2019-05-08T20:58:18.411Z",
            "name": "Philadelphia 76ers"
        }
    },
    {
        "id": 24,
        "model": "resources.team",
        "fields": {
            "createdAt": "2019-05-08T20:58:18.411Z",
            "editedAt": "2019-05-08T20:58:18.411Z",
            "name": "Phoenix Suns"
        }
    },
    {
        "id": 25,
        "model": "resources.team",
        "fields": {
            "createdAt": "2019-05-08T20:58:18.411Z",
            "editedAt": "2019-05-08T20:58:18.411Z",
            "name": "Portland Trail Blazers"
        }
    },
    {
        "id": 26,
        "model": "resources.team",
        "fields": {
            "createdAt": "2019-05-08T20:58:18.411Z",
            "editedAt": "2019-05-08T20:58:18.411Z",
            "name": "Sacramento Kings"
        }
    },
    {
        "id": 27,
        "model": "resources.team",
        "fields": {
            "createdAt": "2019-05-08T20:58:18.411Z",
            "editedAt": "2019-05-08T20:58:18.411Z",
            "name": "San Antonio Spurs"
        }
    },
    {
        "id": 28,
        "model": "resources.team",
        "fields": {
            "createdAt": "2019-05-08T20:58:18.411Z",
            "editedAt": "2019-05-08T20:58:18.411Z",
            "name": "Toronto Raptors"
        }
    },
    {
        "id": 29,
        "model": "resources.team",
        "fields": {
            "createdAt": "2019-05-08T20:58:18.411Z",
            "editedAt": "2019-05-08T20:58:18.411Z",
            "name": "Utah Jazz"
        }
    },
    {
        "id": 30,
        "model": "resources.team",
        "fields": {
            "createdAt": "2019-05-08T20:58:18.411Z",
            "editedAt": "2019-05-08T20:58:18.411Z",
            "name": "Washington Wizards"
        }
    }
]
